EESchema Schematic File Version 4
EELAYER 30 0
EELAYER END
$Descr A4 11693 8268
encoding utf-8
Sheet 1 1
Title ""
Date ""
Rev ""
Comp ""
Comment1 ""
Comment2 ""
Comment3 ""
Comment4 ""
$EndDescr
$Comp
L ESP-12E_NO_BOTTOM_PIN:ESP-12E_NO_BOTTOM_PIN U?
U 1 1 5FCA9E21
P 4600 3000
F 0 "U?" H 4600 3981 50  0000 C CNN
F 1 "ESP-12E_NO_BOTTOM_PIN" H 4600 3890 50  0000 C CNN
F 2 "RF_Module:ESP-12E" H 4600 3000 50  0001 C CNN
F 3 "http://wiki.ai-thinker.com/_media/esp8266/esp8266_series_modules_user_manual_v1.1.pdf" H 4250 3100 50  0001 C CNN
	1    4600 3000
	1    0    0    -1  
$EndComp
$Comp
L Connector_Generic:Conn_01x04 J?
U 1 1 5FCAA685
P 7750 2550
F 0 "J?" H 7830 2542 50  0000 L CNN
F 1 "Conn_01x04" H 7830 2451 50  0000 L CNN
F 2 "" H 7750 2550 50  0001 C CNN
F 3 "~" H 7750 2550 50  0001 C CNN
	1    7750 2550
	1    0    0    -1  
$EndComp
$Comp
L Connector_Generic:Conn_01x03 J?
U 1 1 5FCAAC43
P 7750 3350
F 0 "J?" H 7830 3392 50  0000 L CNN
F 1 "Conn_01x03" H 7830 3301 50  0000 L CNN
F 2 "" H 7750 3350 50  0001 C CNN
F 3 "~" H 7750 3350 50  0001 C CNN
	1    7750 3350
	1    0    0    -1  
$EndComp
$Comp
L power:+3.3V #PWR?
U 1 1 5FCACA92
P 7300 2450
F 0 "#PWR?" H 7300 2300 50  0001 C CNN
F 1 "+3.3V" V 7315 2578 50  0000 L CNN
F 2 "" H 7300 2450 50  0001 C CNN
F 3 "" H 7300 2450 50  0001 C CNN
	1    7300 2450
	0    -1   -1   0   
$EndComp
$Comp
L power:GND #PWR?
U 1 1 5FCAD3E5
P 7300 2750
F 0 "#PWR?" H 7300 2500 50  0001 C CNN
F 1 "GND" V 7305 2622 50  0000 R CNN
F 2 "" H 7300 2750 50  0001 C CNN
F 3 "" H 7300 2750 50  0001 C CNN
	1    7300 2750
	0    1    1    0   
$EndComp
$Comp
L power:+3.3V #PWR?
U 1 1 5FCADFDB
P 7350 3350
F 0 "#PWR?" H 7350 3200 50  0001 C CNN
F 1 "+3.3V" V 7365 3478 50  0000 L CNN
F 2 "" H 7350 3350 50  0001 C CNN
F 3 "" H 7350 3350 50  0001 C CNN
	1    7350 3350
	0    -1   -1   0   
$EndComp
$Comp
L power:GND #PWR?
U 1 1 5FCADFE1
P 7350 3450
F 0 "#PWR?" H 7350 3200 50  0001 C CNN
F 1 "GND" V 7355 3322 50  0000 R CNN
F 2 "" H 7350 3450 50  0001 C CNN
F 3 "" H 7350 3450 50  0001 C CNN
	1    7350 3450
	0    1    1    0   
$EndComp
Wire Wire Line
	7550 3350 7350 3350
Wire Wire Line
	7550 2450 7300 2450
Wire Wire Line
	7300 2750 7550 2750
Wire Wire Line
	7550 3450 7350 3450
Text GLabel 5200 2800 2    50   Input ~ 0
RF_TX
Text GLabel 5200 3200 2    50   Input ~ 0
RF_RX
Text GLabel 7550 2650 0    50   Input ~ 0
RF_TX
Text GLabel 7550 3250 0    50   Input ~ 0
RF_RX
NoConn ~ 7550 2550
$Comp
L Switch:SW_Push SW?
U 1 1 5FCAA2A7
P 7150 4350
F 0 "SW?" H 7150 4635 50  0000 C CNN
F 1 "SW_Push" H 7150 4544 50  0000 C CNN
F 2 "" H 7150 4550 50  0001 C CNN
F 3 "~" H 7150 4550 50  0001 C CNN
	1    7150 4350
	1    0    0    -1  
$EndComp
Text GLabel 5200 3100 2    50   Input ~ 0
BTN
Text GLabel 7700 4350 2    50   Input ~ 0
BTN
$Comp
L power:+3.3V #PWR?
U 1 1 5FCAC14C
P 6800 4350
F 0 "#PWR?" H 6800 4200 50  0001 C CNN
F 1 "+3.3V" V 6815 4478 50  0000 L CNN
F 2 "" H 6800 4350 50  0001 C CNN
F 3 "" H 6800 4350 50  0001 C CNN
	1    6800 4350
	0    -1   -1   0   
$EndComp
$Comp
L power:GND #PWR?
U 1 1 5FCAC7F8
P 7500 4800
F 0 "#PWR?" H 7500 4550 50  0001 C CNN
F 1 "GND" V 7505 4672 50  0000 R CNN
F 2 "" H 7500 4800 50  0001 C CNN
F 3 "" H 7500 4800 50  0001 C CNN
	1    7500 4800
	1    0    0    -1  
$EndComp
$Comp
L Device:R R?
U 1 1 5FCAC977
P 7500 4550
F 0 "R?" H 7570 4596 50  0000 L CNN
F 1 "R" H 7570 4505 50  0000 L CNN
F 2 "" V 7430 4550 50  0001 C CNN
F 3 "~" H 7500 4550 50  0001 C CNN
	1    7500 4550
	-1   0    0    1   
$EndComp
Wire Wire Line
	6800 4350 6950 4350
Wire Wire Line
	7350 4350 7500 4350
Wire Wire Line
	7500 4400 7500 4350
Connection ~ 7500 4350
Wire Wire Line
	7500 4350 7700 4350
Wire Wire Line
	7500 4700 7500 4800
$EndSCHEMATC
